{
    "UCrqxW9_m1LUuhrrq7YPMAtg": {
        "channel_statistics": {
            "viewCount": "479",
            "subscriberCount": "8",
            "hiddenSubscriberCount": false,
            "videoCount": "26"
        },
        "video_data": {
            "w_-oMSeOTMI": {
                "publishedAt": "2020-10-02T03:21:02Z",
                "title": "TEST",
                "channelId": "UCrqxW9_m1LUuhrrq7YPMAtg",
                "description": "",
                "thumbnails": {
                    "default": {
                        "url": "https://i.ytimg.com/vi/w_-oMSeOTMI/default.jpg",
                        "width": 120,
                        "height": 90
                    },
                    "medium": {
                        "url": "https://i.ytimg.com/vi/w_-oMSeOTMI/mqdefault.jpg",
                        "width": 320,
                        "height": 180
                    },
                    "high": {
                        "url": "https://i.ytimg.com/vi/w_-oMSeOTMI/hqdefault.jpg",
                        "width": 480,
                        "height": 360
                    },
                    "standard": {
                        "url": "https://i.ytimg.com/vi/w_-oMSeOTMI/sddefault.jpg",
                        "width": 640,
                        "height": 480
                    },
                    "maxres": {
                        "url": "https://i.ytimg.com/vi/w_-oMSeOTMI/maxresdefault.jpg",
                        "width": 1280,
                        "height": 720
                    }
                },
                "channelTitle": "_Defalt_",
                "categoryId": "24",
                "liveBroadcastContent": "none",
                "localized": {
                    "title": "TEST",
                    "description": ""
                },
                "viewCount": "6",
                "likeCount": "0",
                "favoriteCount": "0",
                "commentCount": "0",
                "duration": "PT1M6S",
                "dimension": "2d",
                "definition": "hd",
                "caption": "false",
                "licensedContent": false,
                "contentRating": {},
                "projection": "rectangular",
                "topicCategories": [
                    "https://en.wikipedia.org/wiki/Video_game_culture"
                ]
            },
            "t48GXzjLfkI": {
                "publishedAt": "2020-10-02T03:19:07Z",
                "title": "TEST",
                "channelId": "UCrqxW9_m1LUuhrrq7YPMAtg",
                "description": "",
                "thumbnails": {
                    "default": {
                        "url": "https://i.ytimg.com/vi/t48GXzjLfkI/default.jpg",
                        "width": 120,
                        "height": 90
                    },
                    "medium": {
                        "url": "https://i.ytimg.com/vi/t48GXzjLfkI/mqdefault.jpg",
                        "width": 320,
                        "height": 180
                    },
                    "high": {
                        "url": "https://i.ytimg.com/vi/t48GXzjLfkI/hqdefault.jpg",
                        "width": 480,
                        "height": 360
                    },
                    "standard": {
                        "url": "https://i.ytimg.com/vi/t48GXzjLfkI/sddefault.jpg",
                        "width": 640,
                        "height": 480
                    },
                    "maxres": {
                        "url": "https://i.ytimg.com/vi/t48GXzjLfkI/maxresdefault.jpg",
                        "width": 1280,
                        "height": 720
                    }
                },
                "channelTitle": "_Defalt_",
                "categoryId": "24",
                "liveBroadcastContent": "none",
                "localized": {
                    "title": "TEST",
                    "description": ""
                },
                "viewCount": "2",
                "likeCount": "0",
                "favoriteCount": "0",
                "commentCount": "0",
                "duration": "PT1M36S",
                "dimension": "2d",
                "definition": "hd",
                "caption": "false",
                "licensedContent": false,
                "contentRating": {},
                "projection": "rectangular",
                "topicCategories": [
                    "https://en.wikipedia.org/wiki/Action_game",
                    "https://en.wikipedia.org/wiki/Video_game_culture"
                ]
            },
            "oDpy3SN55JU": {
                "publishedAt": "2020-10-01T15:16:23Z",
                "title": "TEST",
                "channelId": "UCrqxW9_m1LUuhrrq7YPMAtg",
                "description": "",
                "thumbnails": {
                    "default": {
                        "url": "https://i.ytimg.com/vi/oDpy3SN55JU/default_live.jpg",
                        "width": 120,
                        "height": 90
                    },
                    "medium": {
                        "url": "https://i.ytimg.com/vi/oDpy3SN55JU/mqdefault_live.jpg",
                        "width": 320,
                        "height": 180
                    },
                    "high": {
                        "url": "https://i.ytimg.com/vi/oDpy3SN55JU/hqdefault_live.jpg",
                        "width": 480,
                        "height": 360
                    },
                    "standard": {
                        "url": "https://i.ytimg.com/vi/oDpy3SN55JU/sddefault_live.jpg",
                        "width": 640,
                        "height": 480
                    },
                    "maxres": {
                        "url": "https://i.ytimg.com/vi/oDpy3SN55JU/maxresdefault_live.jpg",
                        "width": 1280,
                        "height": 720
                    }
                },
                "channelTitle": "_Defalt_",
                "categoryId": "24",
                "liveBroadcastContent": "upcoming",
                "localized": {
                    "title": "TEST",
                    "description": ""
                },
                "viewCount": "0",
                "likeCount": "0",
                "favoriteCount": "0",
                "commentCount": "0",
                "duration": "P0D",
                "dimension": "2d",
                "definition": "sd",
                "caption": "false",
                "licensedContent": false,
                "contentRating": {},
                "projection": "rectangular"
            },
            "Rsfs38vcZnk": {
                "publishedAt": "2020-10-01T15:15:34Z",
                "title": "TEST",
                "channelId": "UCrqxW9_m1LUuhrrq7YPMAtg",
                "description": "",
                "thumbnails": {
                    "default": {
                        "url": "https://i.ytimg.com/vi/Rsfs38vcZnk/default_live.jpg",
                        "width": 120,
                        "height": 90
                    },
                    "medium": {
                        "url": "https://i.ytimg.com/vi/Rsfs38vcZnk/mqdefault_live.jpg",
                        "width": 320,
                        "height": 180
                    },
                    "high": {
                        "url": "https://i.ytimg.com/vi/Rsfs38vcZnk/hqdefault_live.jpg",
                        "width": 480,
                        "height": 360
                    },
                    "standard": {
                        "url": "https://i.ytimg.com/vi/Rsfs38vcZnk/sddefault_live.jpg",
                        "width": 640,
                        "height": 480
                    },
                    "maxres": {
                        "url": "https://i.ytimg.com/vi/Rsfs38vcZnk/maxresdefault_live.jpg",
                        "width": 1280,
                        "height": 720
                    }
                },
                "channelTitle": "_Defalt_",
                "categoryId": "24",
                "liveBroadcastContent": "upcoming",
                "localized": {
                    "title": "TEST",
                    "description": ""
                },
                "viewCount": "0",
                "likeCount": "0",
                "favoriteCount": "0",
                "commentCount": "0",
                "duration": "P0D",
                "dimension": "2d",
                "definition": "sd",
                "caption": "false",
                "licensedContent": false,
                "contentRating": {},
                "projection": "rectangular"
            },
            "_l2KeYJaWAE": {
                "publishedAt": "2019-11-16T15:50:02Z",
                "title": "CODE VEIN",
                "channelId": "UCrqxW9_m1LUuhrrq7YPMAtg",
                "description": "",
                "thumbnails": {
                    "default": {
                        "url": "https://i.ytimg.com/vi/_l2KeYJaWAE/default.jpg",
                        "width": 120,
                        "height": 90
                    },
                    "medium": {
                        "url": "https://i.ytimg.com/vi/_l2KeYJaWAE/mqdefault.jpg",
                        "width": 320,
                        "height": 180
                    },
                    "high": {
                        "url": "https://i.ytimg.com/vi/_l2KeYJaWAE/hqdefault.jpg",
                        "width": 480,
                        "height": 360
                    },
                    "standard": {
                        "url": "https://i.ytimg.com/vi/_l2KeYJaWAE/sddefault.jpg",
                        "width": 640,
                        "height": 480
                    },
                    "maxres": {
                        "url": "https://i.ytimg.com/vi/_l2KeYJaWAE/maxresdefault.jpg",
                        "width": 1280,
                        "height": 720
                    }
                },
                "channelTitle": "_Defalt_",
                "categoryId": "24",
                "liveBroadcastContent": "none",
                "localized": {
                    "title": "CODE VEIN",
                    "description": ""
                },
                "viewCount": "23",
                "likeCount": "0",
                "favoriteCount": "0",
                "commentCount": "0",
                "duration": "PT1H1M10S",
                "dimension": "2d",
                "definition": "hd",
                "caption": "false",
                "licensedContent": false,
                "contentRating": {},
                "projection": "rectangular",
                "topicCategories": [
                    "https://en.wikipedia.org/wiki/Action-adventure_game",
                    "https://en.wikipedia.org/wiki/Action_game",
                    "https://en.wikipedia.org/wiki/Role-playing_video_game",
                    "https://en.wikipedia.org/wiki/Video_game_culture"
                ]
            },
            "edxYs1Ixcfg": {
                "publishedAt": "2018-12-31T16:48:52Z",
                "title": "\u0e1b\u0e35\u0e43\u0e2b\u0e21\u0e48",
                "channelId": "UCrqxW9_m1LUuhrrq7YPMAtg",
                "description": "",
                "thumbnails": {
                    "default": {
                        "url": "https://i.ytimg.com/vi/edxYs1Ixcfg/default_live.jpg",
                        "width": 120,
                        "height": 90
                    },
                    "medium": {
                        "url": "https://i.ytimg.com/vi/edxYs1Ixcfg/mqdefault_live.jpg",
                        "width": 320,
                        "height": 180
                    },
                    "high": {
                        "url": "https://i.ytimg.com/vi/edxYs1Ixcfg/hqdefault_live.jpg",
                        "width": 480,
                        "height": 360
                    },
                    "standard": {
                        "url": "https://i.ytimg.com/vi/edxYs1Ixcfg/sddefault_live.jpg",
                        "width": 640,
                        "height": 480
                    },
                    "maxres": {
                        "url": "https://i.ytimg.com/vi/edxYs1Ixcfg/maxresdefault_live.jpg",
                        "width": 1280,
                        "height": 720
                    }
                },
                "channelTitle": "_Defalt_",
                "categoryId": "24",
                "liveBroadcastContent": "upcoming",
                "localized": {
                    "title": "\u0e1b\u0e35\u0e43\u0e2b\u0e21\u0e48",
                    "description": ""
                },
                "viewCount": "0",
                "likeCount": "0",
                "favoriteCount": "0",
                "commentCount": "0",
                "duration": "P0D",
                "dimension": "2d",
                "definition": "sd",
                "caption": "false",
                "licensedContent": false,
                "contentRating": {},
                "projection": "rectangular"
            },
            "JMEuQfJn6FM": {
                "publishedAt": "2018-04-30T10:37:12Z",
                "title": "CSGO : \u0e25\u0e48\u0e32\u0e21\u0e32\u0e25\u0e35 [4/30/2018]",
                "channelId": "UCrqxW9_m1LUuhrrq7YPMAtg",
                "description": "",
                "thumbnails": {
                    "default": {
                        "url": "https://i.ytimg.com/vi/JMEuQfJn6FM/default.jpg",
                        "width": 120,
                        "height": 90
                    },
                    "medium": {
                        "url": "https://i.ytimg.com/vi/JMEuQfJn6FM/mqdefault.jpg",
                        "width": 320,
                        "height": 180
                    },
                    "high": {
                        "url": "https://i.ytimg.com/vi/JMEuQfJn6FM/hqdefault.jpg",
                        "width": 480,
                        "height": 360
                    },
                    "standard": {
                        "url": "https://i.ytimg.com/vi/JMEuQfJn6FM/sddefault.jpg",
                        "width": 640,
                        "height": 480
                    },
                    "maxres": {
                        "url": "https://i.ytimg.com/vi/JMEuQfJn6FM/maxresdefault.jpg",
                        "width": 1280,
                        "height": 720
                    }
                },
                "channelTitle": "_Defalt_",
                "categoryId": "20",
                "liveBroadcastContent": "none",
                "localized": {
                    "title": "CSGO : \u0e25\u0e48\u0e32\u0e21\u0e32\u0e25\u0e35 [4/30/2018]",
                    "description": ""
                },
                "defaultAudioLanguage": "en-US",
                "viewCount": "59",
                "likeCount": "1",
                "favoriteCount": "0",
                "commentCount": "0",
                "duration": "PT55M52S",
                "dimension": "2d",
                "definition": "hd",
                "caption": "false",
                "licensedContent": false,
                "contentRating": {},
                "projection": "rectangular",
                "topicCategories": [
                    "https://en.wikipedia.org/wiki/Action-adventure_game",
                    "https://en.wikipedia.org/wiki/Action_game",
                    "https://en.wikipedia.org/wiki/Role-playing_video_game",
                    "https://en.wikipedia.org/wiki/Video_game_culture"
                ]
            },
            "ZxAd7IZimLQ": {
                "publishedAt": "2018-04-28T10:15:36Z",
                "title": "CSGO : \u0e22\u0e34\u0e07\u0e40\u0e14\u0e47\u0e01\u0e22\u0e34\u0e07\u0e44\u0e01\u0e48",
                "channelId": "UCrqxW9_m1LUuhrrq7YPMAtg",
                "description": "",
                "thumbnails": {
                    "default": {
                        "url": "https://i.ytimg.com/vi/ZxAd7IZimLQ/default.jpg",
                        "width": 120,
                        "height": 90
                    },
                    "medium": {
                        "url": "https://i.ytimg.com/vi/ZxAd7IZimLQ/mqdefault.jpg",
                        "width": 320,
                        "height": 180
                    },
                    "high": {
                        "url": "https://i.ytimg.com/vi/ZxAd7IZimLQ/hqdefault.jpg",
                        "width": 480,
                        "height": 360
                    },
                    "standard": {
                        "url": "https://i.ytimg.com/vi/ZxAd7IZimLQ/sddefault.jpg",
                        "width": 640,
                        "height": 480
                    },
                    "maxres": {
                        "url": "https://i.ytimg.com/vi/ZxAd7IZimLQ/maxresdefault.jpg",
                        "width": 1280,
                        "height": 720
                    }
                },
                "channelTitle": "_Defalt_",
                "categoryId": "20",
                "liveBroadcastContent": "none",
                "localized": {
                    "title": "CSGO : \u0e22\u0e34\u0e07\u0e40\u0e14\u0e47\u0e01\u0e22\u0e34\u0e07\u0e44\u0e01\u0e48",
                    "description": ""
                },
                "defaultAudioLanguage": "en-US",
                "viewCount": "42",
                "likeCount": "1",
                "favoriteCount": "0",
                "commentCount": "0",
                "duration": "PT36M21S",
                "dimension": "2d",
                "definition": "hd",
                "caption": "false",
                "licensedContent": false,
                "contentRating": {},
                "projection": "rectangular",
                "topicCategories": [
                    "https://en.wikipedia.org/wiki/Action-adventure_game",
                    "https://en.wikipedia.org/wiki/Action_game",
                    "https://en.wikipedia.org/wiki/Video_game_culture"
                ]
            },
            "R83w-euGulE": {
                "publishedAt": "2018-01-28T04:39:16Z",
                "title": "\u0e01\u0e32\u0e23\u0e2d\u0e2d\u0e01\u0e2d\u0e32\u0e01\u0e32\u0e28\u0e2a\u0e14\u0e02\u0e2d\u0e07 _Defalt_",
                "channelId": "UCrqxW9_m1LUuhrrq7YPMAtg",
                "description": "",
                "thumbnails": {
                    "default": {
                        "url": "https://i.ytimg.com/vi/R83w-euGulE/default.jpg",
                        "width": 120,
                        "height": 90
                    },
                    "medium": {
                        "url": "https://i.ytimg.com/vi/R83w-euGulE/mqdefault.jpg",
                        "width": 320,
                        "height": 180
                    },
                    "high": {
                        "url": "https://i.ytimg.com/vi/R83w-euGulE/hqdefault.jpg",
                        "width": 480,
                        "height": 360
                    },
                    "standard": {
                        "url": "https://i.ytimg.com/vi/R83w-euGulE/sddefault.jpg",
                        "width": 640,
                        "height": 480
                    },
                    "maxres": {
                        "url": "https://i.ytimg.com/vi/R83w-euGulE/maxresdefault.jpg",
                        "width": 1280,
                        "height": 720
                    }
                },
                "channelTitle": "_Defalt_",
                "categoryId": "24",
                "liveBroadcastContent": "none",
                "localized": {
                    "title": "\u0e01\u0e32\u0e23\u0e2d\u0e2d\u0e01\u0e2d\u0e32\u0e01\u0e32\u0e28\u0e2a\u0e14\u0e02\u0e2d\u0e07 _Defalt_",
                    "description": ""
                },
                "viewCount": "21",
                "likeCount": "0",
                "favoriteCount": "0",
                "commentCount": "0",
                "duration": "PT6M58S",
                "dimension": "2d",
                "definition": "hd",
                "caption": "false",
                "licensedContent": false,
                "contentRating": {},
                "projection": "rectangular",
                "topicCategories": [
                    "https://en.wikipedia.org/wiki/Music",
                    "https://en.wikipedia.org/wiki/Pop_music"
                ]
            },
            "eJPANXoVg-8": {
                "publishedAt": "2018-01-28T04:06:38Z",
                "title": "\u0e01\u0e32\u0e23\u0e2d\u0e2d\u0e01\u0e2d\u0e32\u0e01\u0e32\u0e28\u0e2a\u0e14\u0e02\u0e2d\u0e07 _Defalt_",
                "channelId": "UCrqxW9_m1LUuhrrq7YPMAtg",
                "description": "",
                "thumbnails": {
                    "default": {
                        "url": "https://i.ytimg.com/vi/eJPANXoVg-8/default_live.jpg",
                        "width": 120,
                        "height": 90
                    },
                    "medium": {
                        "url": "https://i.ytimg.com/vi/eJPANXoVg-8/mqdefault_live.jpg",
                        "width": 320,
                        "height": 180
                    },
                    "high": {
                        "url": "https://i.ytimg.com/vi/eJPANXoVg-8/hqdefault_live.jpg",
                        "width": 480,
                        "height": 360
                    },
                    "standard": {
                        "url": "https://i.ytimg.com/vi/eJPANXoVg-8/sddefault_live.jpg",
                        "width": 640,
                        "height": 480
                    },
                    "maxres": {
                        "url": "https://i.ytimg.com/vi/eJPANXoVg-8/maxresdefault_live.jpg",
                        "width": 1280,
                        "height": 720
                    }
                },
                "channelTitle": "_Defalt_",
                "categoryId": "24",
                "liveBroadcastContent": "upcoming",
                "localized": {
                    "title": "\u0e01\u0e32\u0e23\u0e2d\u0e2d\u0e01\u0e2d\u0e32\u0e01\u0e32\u0e28\u0e2a\u0e14\u0e02\u0e2d\u0e07 _Defalt_",
                    "description": ""
                },
                "viewCount": "0",
                "likeCount": "0",
                "favoriteCount": "0",
                "commentCount": "0",
                "duration": "P0D",
                "dimension": "2d",
                "definition": "sd",
                "caption": "false",
                "licensedContent": false,
                "contentRating": {},
                "projection": "rectangular"
            },
            "FShtbh1nYro": {
                "publishedAt": "2017-11-22T12:33:27Z",
                "title": "test",
                "channelId": "UCrqxW9_m1LUuhrrq7YPMAtg",
                "description": "GPU: GeForce GTX 950M\nCPU: Intel(R) Core(TM) i7-4720HQ CPU @ 2.60GHz\nMemory: 12 GB RAM (11.89 GB RAM usable)\nCurrent resolution: 1366 x 768, 60Hz\nOperating system: Microsoft Windows 10 Pro",
                "thumbnails": {
                    "default": {
                        "url": "https://i.ytimg.com/vi/FShtbh1nYro/default.jpg",
                        "width": 120,
                        "height": 90
                    },
                    "medium": {
                        "url": "https://i.ytimg.com/vi/FShtbh1nYro/mqdefault.jpg",
                        "width": 320,
                        "height": 180
                    },
                    "high": {
                        "url": "https://i.ytimg.com/vi/FShtbh1nYro/hqdefault.jpg",
                        "width": 480,
                        "height": 360
                    },
                    "standard": {
                        "url": "https://i.ytimg.com/vi/FShtbh1nYro/sddefault.jpg",
                        "width": 640,
                        "height": 480
                    },
                    "maxres": {
                        "url": "https://i.ytimg.com/vi/FShtbh1nYro/maxresdefault.jpg",
                        "width": 1280,
                        "height": 720
                    }
                },
                "channelTitle": "_Defalt_",
                "categoryId": "20",
                "liveBroadcastContent": "none",
                "localized": {
                    "title": "test",
                    "description": "GPU: GeForce GTX 950M\nCPU: Intel(R) Core(TM) i7-4720HQ CPU @ 2.60GHz\nMemory: 12 GB RAM (11.89 GB RAM usable)\nCurrent resolution: 1366 x 768, 60Hz\nOperating system: Microsoft Windows 10 Pro"
                },
                "defaultAudioLanguage": "en-US",
                "viewCount": "5",
                "likeCount": "0",
                "favoriteCount": "0",
                "commentCount": "2",
                "duration": "PT57S",
                "dimension": "2d",
                "definition": "sd",
                "caption": "false",
                "licensedContent": false,
                "contentRating": {},
                "projection": "rectangular",
                "topicCategories": [
                    "https://en.wikipedia.org/wiki/Action-adventure_game",
                    "https://en.wikipedia.org/wiki/Action_game",
                    "https://en.wikipedia.org/wiki/Video_game_culture"
                ]
            },
            "tZVdJ9Rwwv8": {
                "publishedAt": "2017-10-09T12:52:44Z",
                "title": "CS:GO ROAD TO MG Day 1",
                "channelId": "UCrqxW9_m1LUuhrrq7YPMAtg",
                "description": "GPU: GeForce GTX 950M\nCPU: Intel(R) Core(TM) i7-4720HQ CPU @ 2.60GHz\nMemory: 12 GB RAM (11.89 GB RAM usable)\nCurrent resolution: 1366 x 768, 60Hz\nOperating system: Microsoft Windows 10 Pro",
                "thumbnails": {
                    "default": {
                        "url": "https://i.ytimg.com/vi/tZVdJ9Rwwv8/default.jpg",
                        "width": 120,
                        "height": 90
                    },
                    "medium": {
                        "url": "https://i.ytimg.com/vi/tZVdJ9Rwwv8/mqdefault.jpg",
                        "width": 320,
                        "height": 180
                    },
                    "high": {
                        "url": "https://i.ytimg.com/vi/tZVdJ9Rwwv8/hqdefault.jpg",
                        "width": 480,
                        "height": 360
                    },
                    "standard": {
                        "url": "https://i.ytimg.com/vi/tZVdJ9Rwwv8/sddefault.jpg",
                        "width": 640,
                        "height": 480
                    },
                    "maxres": {
                        "url": "https://i.ytimg.com/vi/tZVdJ9Rwwv8/maxresdefault.jpg",
                        "width": 1280,
                        "height": 720
                    }
                },
                "channelTitle": "_Defalt_",
                "categoryId": "20",
                "liveBroadcastContent": "none",
                "localized": {
                    "title": "CS:GO ROAD TO MG Day 1",
                    "description": "GPU: GeForce GTX 950M\nCPU: Intel(R) Core(TM) i7-4720HQ CPU @ 2.60GHz\nMemory: 12 GB RAM (11.89 GB RAM usable)\nCurrent resolution: 1366 x 768, 60Hz\nOperating system: Microsoft Windows 10 Pro"
                },
                "defaultAudioLanguage": "en-US",
                "viewCount": "8",
                "likeCount": "0",
                "favoriteCount": "0",
                "commentCount": "0",
                "duration": "PT1M17S",
                "dimension": "2d",
                "definition": "sd",
                "caption": "false",
                "licensedContent": false,
                "contentRating": {},
                "projection": "rectangular",
                "topicCategories": [
                    "https://en.wikipedia.org/wiki/Action-adventure_game",
                    "https://en.wikipedia.org/wiki/Action_game",
                    "https://en.wikipedia.org/wiki/Video_game_culture"
                ]
            },
            "VNPq3PfWj6I": {
                "publishedAt": "2017-09-28T12:45:34Z",
                "title": "Overwatch",
                "channelId": "UCrqxW9_m1LUuhrrq7YPMAtg",
                "description": "",
                "thumbnails": {
                    "default": {
                        "url": "https://i.ytimg.com/vi/VNPq3PfWj6I/default.jpg",
                        "width": 120,
                        "height": 90
                    },
                    "medium": {
                        "url": "https://i.ytimg.com/vi/VNPq3PfWj6I/mqdefault.jpg",
                        "width": 320,
                        "height": 180
                    },
                    "high": {
                        "url": "https://i.ytimg.com/vi/VNPq3PfWj6I/hqdefault.jpg",
                        "width": 480,
                        "height": 360
                    },
                    "standard": {
                        "url": "https://i.ytimg.com/vi/VNPq3PfWj6I/sddefault.jpg",
                        "width": 640,
                        "height": 480
                    },
                    "maxres": {
                        "url": "https://i.ytimg.com/vi/VNPq3PfWj6I/maxresdefault.jpg",
                        "width": 1280,
                        "height": 720
                    }
                },
                "channelTitle": "_Defalt_",
                "categoryId": "20",
                "liveBroadcastContent": "none",
                "localized": {
                    "title": "Overwatch",
                    "description": ""
                },
                "viewCount": "6",
                "likeCount": "0",
                "favoriteCount": "0",
                "commentCount": "1",
                "duration": "PT1M56S",
                "dimension": "2d",
                "definition": "hd",
                "caption": "false",
                "licensedContent": false,
                "contentRating": {},
                "projection": "rectangular",
                "topicCategories": [
                    "https://en.wikipedia.org/wiki/Action_game",
                    "https://en.wikipedia.org/wiki/Video_game_culture"
                ]
            },
            "TSqzA6Sv8So": {
                "publishedAt": "2017-08-02T14:04:59Z",
                "title": "Overwatch",
                "channelId": "UCrqxW9_m1LUuhrrq7YPMAtg",
                "description": "",
                "thumbnails": {
                    "default": {
                        "url": "https://i.ytimg.com/vi/TSqzA6Sv8So/default.jpg",
                        "width": 120,
                        "height": 90
                    },
                    "medium": {
                        "url": "https://i.ytimg.com/vi/TSqzA6Sv8So/mqdefault.jpg",
                        "width": 320,
                        "height": 180
                    },
                    "high": {
                        "url": "https://i.ytimg.com/vi/TSqzA6Sv8So/hqdefault.jpg",
                        "width": 480,
                        "height": 360
                    },
                    "standard": {
                        "url": "https://i.ytimg.com/vi/TSqzA6Sv8So/sddefault.jpg",
                        "width": 640,
                        "height": 480
                    },
                    "maxres": {
                        "url": "https://i.ytimg.com/vi/TSqzA6Sv8So/maxresdefault.jpg",
                        "width": 1280,
                        "height": 720
                    }
                },
                "channelTitle": "_Defalt_",
                "categoryId": "20",
                "liveBroadcastContent": "none",
                "localized": {
                    "title": "Overwatch",
                    "description": ""
                },
                "viewCount": "13",
                "likeCount": "0",
                "favoriteCount": "0",
                "commentCount": "0",
                "duration": "PT5M56S",
                "dimension": "2d",
                "definition": "hd",
                "caption": "false",
                "licensedContent": false,
                "contentRating": {},
                "projection": "rectangular",
                "topicCategories": [
                    "https://en.wikipedia.org/wiki/Action-adventure_game",
                    "https://en.wikipedia.org/wiki/Action_game",
                    "https://en.wikipedia.org/wiki/Role-playing_video_game",
                    "https://en.wikipedia.org/wiki/Strategy_video_game",
                    "https://en.wikipedia.org/wiki/Video_game_culture"
                ]
            },
            "Wbn3Mu6IGxE": {
                "publishedAt": "2017-07-31T14:27:32Z",
                "title": "Overwatch",
                "channelId": "UCrqxW9_m1LUuhrrq7YPMAtg",
                "description": "",
                "thumbnails": {
                    "default": {
                        "url": "https://i.ytimg.com/vi/Wbn3Mu6IGxE/default.jpg",
                        "width": 120,
                        "height": 90
                    },
                    "medium": {
                        "url": "https://i.ytimg.com/vi/Wbn3Mu6IGxE/mqdefault.jpg",
                        "width": 320,
                        "height": 180
                    },
                    "high": {
                        "url": "https://i.ytimg.com/vi/Wbn3Mu6IGxE/hqdefault.jpg",
                        "width": 480,
                        "height": 360
                    },
                    "standard": {
                        "url": "https://i.ytimg.com/vi/Wbn3Mu6IGxE/sddefault.jpg",
                        "width": 640,
                        "height": 480
                    },
                    "maxres": {
                        "url": "https://i.ytimg.com/vi/Wbn3Mu6IGxE/maxresdefault.jpg",
                        "width": 1280,
                        "height": 720
                    }
                },
                "channelTitle": "_Defalt_",
                "categoryId": "20",
                "liveBroadcastContent": "none",
                "localized": {
                    "title": "Overwatch",
                    "description": ""
                },
                "viewCount": "1",
                "likeCount": "0",
                "favoriteCount": "0",
                "commentCount": "0",
                "duration": "PT10M32S",
                "dimension": "2d",
                "definition": "hd",
                "caption": "false",
                "licensedContent": false,
                "contentRating": {},
                "projection": "rectangular",
                "topicCategories": [
                    "https://en.wikipedia.org/wiki/Action-adventure_game",
                    "https://en.wikipedia.org/wiki/Action_game",
                    "https://en.wikipedia.org/wiki/Role-playing_video_game",
                    "https://en.wikipedia.org/wiki/Video_game_culture"
                ]
            },
            "Soq5bVEDcPQ": {
                "publishedAt": "2017-07-30T08:54:13Z",
                "title": "KSP",
                "channelId": "UCrqxW9_m1LUuhrrq7YPMAtg",
                "description": "",
                "thumbnails": {
                    "default": {
                        "url": "https://i.ytimg.com/vi/Soq5bVEDcPQ/default.jpg",
                        "width": 120,
                        "height": 90
                    },
                    "medium": {
                        "url": "https://i.ytimg.com/vi/Soq5bVEDcPQ/mqdefault.jpg",
                        "width": 320,
                        "height": 180
                    },
                    "high": {
                        "url": "https://i.ytimg.com/vi/Soq5bVEDcPQ/hqdefault.jpg",
                        "width": 480,
                        "height": 360
                    },
                    "standard": {
                        "url": "https://i.ytimg.com/vi/Soq5bVEDcPQ/sddefault.jpg",
                        "width": 640,
                        "height": 480
                    },
                    "maxres": {
                        "url": "https://i.ytimg.com/vi/Soq5bVEDcPQ/maxresdefault.jpg",
                        "width": 1280,
                        "height": 720
                    }
                },
                "channelTitle": "_Defalt_",
                "categoryId": "20",
                "liveBroadcastContent": "none",
                "localized": {
                    "title": "KSP",
                    "description": ""
                },
                "viewCount": "6",
                "likeCount": "0",
                "favoriteCount": "0",
                "commentCount": "0",
                "duration": "PT12M22S",
                "dimension": "2d",
                "definition": "hd",
                "caption": "false",
                "licensedContent": false,
                "contentRating": {},
                "projection": "rectangular",
                "topicCategories": [
                    "https://en.wikipedia.org/wiki/Simulation_video_game",
                    "https://en.wikipedia.org/wiki/Strategy_video_game",
                    "https://en.wikipedia.org/wiki/Video_game_culture"
                ]
            },
            "CDmd5RBjG5c": {
                "publishedAt": "2017-07-30T08:05:15Z",
                "title": "KSP",
                "channelId": "UCrqxW9_m1LUuhrrq7YPMAtg",
                "description": "",
                "thumbnails": {
                    "default": {
                        "url": "https://i.ytimg.com/vi/CDmd5RBjG5c/default_live.jpg",
                        "width": 120,
                        "height": 90
                    },
                    "medium": {
                        "url": "https://i.ytimg.com/vi/CDmd5RBjG5c/mqdefault_live.jpg",
                        "width": 320,
                        "height": 180
                    },
                    "high": {
                        "url": "https://i.ytimg.com/vi/CDmd5RBjG5c/hqdefault_live.jpg",
                        "width": 480,
                        "height": 360
                    },
                    "standard": {
                        "url": "https://i.ytimg.com/vi/CDmd5RBjG5c/sddefault_live.jpg",
                        "width": 640,
                        "height": 480
                    },
                    "maxres": {
                        "url": "https://i.ytimg.com/vi/CDmd5RBjG5c/maxresdefault_live.jpg",
                        "width": 1280,
                        "height": 720
                    }
                },
                "channelTitle": "_Defalt_",
                "categoryId": "24",
                "liveBroadcastContent": "upcoming",
                "localized": {
                    "title": "KSP",
                    "description": ""
                },
                "viewCount": "0",
                "likeCount": "0",
                "favoriteCount": "0",
                "commentCount": "0",
                "duration": "P0D",
                "dimension": "2d",
                "definition": "sd",
                "caption": "false",
                "licensedContent": false,
                "contentRating": {},
                "projection": "rectangular"
            },
            "V0tAaNQo2IY": {
                "publishedAt": "2017-07-30T07:29:24Z",
                "title": "DOTA 2 :MMR PARTY [EP.1]",
                "channelId": "UCrqxW9_m1LUuhrrq7YPMAtg",
                "description": "",
                "thumbnails": {
                    "default": {
                        "url": "https://i.ytimg.com/vi/V0tAaNQo2IY/default.jpg",
                        "width": 120,
                        "height": 90
                    },
                    "medium": {
                        "url": "https://i.ytimg.com/vi/V0tAaNQo2IY/mqdefault.jpg",
                        "width": 320,
                        "height": 180
                    },
                    "high": {
                        "url": "https://i.ytimg.com/vi/V0tAaNQo2IY/hqdefault.jpg",
                        "width": 480,
                        "height": 360
                    },
                    "standard": {
                        "url": "https://i.ytimg.com/vi/V0tAaNQo2IY/sddefault.jpg",
                        "width": 640,
                        "height": 480
                    },
                    "maxres": {
                        "url": "https://i.ytimg.com/vi/V0tAaNQo2IY/maxresdefault.jpg",
                        "width": 1280,
                        "height": 720
                    }
                },
                "channelTitle": "_Defalt_",
                "categoryId": "20",
                "liveBroadcastContent": "none",
                "localized": {
                    "title": "DOTA 2 :MMR PARTY [EP.1]",
                    "description": ""
                },
                "viewCount": "34",
                "likeCount": "1",
                "favoriteCount": "0",
                "commentCount": "0",
                "duration": "PT55M13S",
                "dimension": "2d",
                "definition": "hd",
                "caption": "false",
                "licensedContent": false,
                "regionRestriction": {
                    "blocked": [
                        "RU"
                    ]
                },
                "contentRating": {},
                "projection": "rectangular",
                "topicCategories": [
                    "https://en.wikipedia.org/wiki/Action-adventure_game",
                    "https://en.wikipedia.org/wiki/Action_game",
                    "https://en.wikipedia.org/wiki/Role-playing_video_game",
                    "https://en.wikipedia.org/wiki/Strategy_video_game",
                    "https://en.wikipedia.org/wiki/Video_game_culture"
                ]
            },
            "8QlOv-_f61U": {
                "publishedAt": "2017-07-30T05:59:04Z",
                "title": "DOTA 2 :MMR PARTY [EP.1]",
                "channelId": "UCrqxW9_m1LUuhrrq7YPMAtg",
                "description": "",
                "thumbnails": {
                    "default": {
                        "url": "https://i.ytimg.com/vi/8QlOv-_f61U/default.jpg",
                        "width": 120,
                        "height": 90
                    },
                    "medium": {
                        "url": "https://i.ytimg.com/vi/8QlOv-_f61U/mqdefault.jpg",
                        "width": 320,
                        "height": 180
                    },
                    "high": {
                        "url": "https://i.ytimg.com/vi/8QlOv-_f61U/hqdefault.jpg",
                        "width": 480,
                        "height": 360
                    },
                    "standard": {
                        "url": "https://i.ytimg.com/vi/8QlOv-_f61U/sddefault.jpg",
                        "width": 640,
                        "height": 480
                    },
                    "maxres": {
                        "url": "https://i.ytimg.com/vi/8QlOv-_f61U/maxresdefault.jpg",
                        "width": 1280,
                        "height": 720
                    }
                },
                "channelTitle": "_Defalt_",
                "categoryId": "20",
                "liveBroadcastContent": "none",
                "localized": {
                    "title": "DOTA 2 :MMR PARTY [EP.1]",
                    "description": ""
                },
                "viewCount": "12",
                "likeCount": "0",
                "favoriteCount": "0",
                "commentCount": "0",
                "duration": "PT3M25S",
                "dimension": "2d",
                "definition": "hd",
                "caption": "false",
                "licensedContent": false,
                "regionRestriction": {
                    "blocked": [
                        "RU"
                    ]
                },
                "contentRating": {},
                "projection": "rectangular",
                "topicCategories": [
                    "https://en.wikipedia.org/wiki/Action-adventure_game",
                    "https://en.wikipedia.org/wiki/Action_game",
                    "https://en.wikipedia.org/wiki/Role-playing_video_game",
                    "https://en.wikipedia.org/wiki/Strategy_video_game",
                    "https://en.wikipedia.org/wiki/Video_game_culture"
                ]
            },
            "2aOh9zwrSbY": {
                "publishedAt": "2017-07-30T05:57:36Z",
                "title": "ARK:TEST",
                "channelId": "UCrqxW9_m1LUuhrrq7YPMAtg",
                "description": "GPU: GeForce GTX 950M\nCPU: Intel(R) Core(TM) i7-4720HQ CPU @ 2.60GHz\nMemory: 12 GB RAM (11.89 GB RAM usable)\nCurrent resolution: 1366 x 768, 60Hz\nOperating system: Microsoft Windows 8.1 Enterprise",
                "thumbnails": {
                    "default": {
                        "url": "https://i.ytimg.com/vi/2aOh9zwrSbY/default.jpg",
                        "width": 120,
                        "height": 90
                    },
                    "medium": {
                        "url": "https://i.ytimg.com/vi/2aOh9zwrSbY/mqdefault.jpg",
                        "width": 320,
                        "height": 180
                    },
                    "high": {
                        "url": "https://i.ytimg.com/vi/2aOh9zwrSbY/hqdefault.jpg",
                        "width": 480,
                        "height": 360
                    },
                    "standard": {
                        "url": "https://i.ytimg.com/vi/2aOh9zwrSbY/sddefault.jpg",
                        "width": 640,
                        "height": 480
                    },
                    "maxres": {
                        "url": "https://i.ytimg.com/vi/2aOh9zwrSbY/maxresdefault.jpg",
                        "width": 1280,
                        "height": 720
                    }
                },
                "channelTitle": "_Defalt_",
                "categoryId": "20",
                "liveBroadcastContent": "none",
                "localized": {
                    "title": "ARK:TEST",
                    "description": "GPU: GeForce GTX 950M\nCPU: Intel(R) Core(TM) i7-4720HQ CPU @ 2.60GHz\nMemory: 12 GB RAM (11.89 GB RAM usable)\nCurrent resolution: 1366 x 768, 60Hz\nOperating system: Microsoft Windows 8.1 Enterprise"
                },
                "defaultAudioLanguage": "en-US",
                "viewCount": "56",
                "likeCount": "0",
                "favoriteCount": "0",
                "commentCount": "0",
                "duration": "PT40M34S",
                "dimension": "2d",
                "definition": "hd",
                "caption": "false",
                "licensedContent": false,
                "regionRestriction": {
                    "blocked": [
                        "RU"
                    ]
                },
                "contentRating": {},
                "projection": "rectangular",
                "topicCategories": [
                    "https://en.wikipedia.org/wiki/Action-adventure_game",
                    "https://en.wikipedia.org/wiki/Action_game",
                    "https://en.wikipedia.org/wiki/Role-playing_video_game",
                    "https://en.wikipedia.org/wiki/Strategy_video_game",
                    "https://en.wikipedia.org/wiki/Video_game_culture"
                ]
            },
            "-R6vxUVZ6OI": {
                "publishedAt": "2017-06-26T11:58:42Z",
                "title": "DOTA 2 :\u0e40\u0e1b\u0e34\u0e14\u0e01\u0e25\u0e48\u0e2d\u0e07",
                "channelId": "UCrqxW9_m1LUuhrrq7YPMAtg",
                "description": "",
                "thumbnails": {
                    "default": {
                        "url": "https://i.ytimg.com/vi/-R6vxUVZ6OI/default.jpg",
                        "width": 120,
                        "height": 90
                    },
                    "medium": {
                        "url": "https://i.ytimg.com/vi/-R6vxUVZ6OI/mqdefault.jpg",
                        "width": 320,
                        "height": 180
                    },
                    "high": {
                        "url": "https://i.ytimg.com/vi/-R6vxUVZ6OI/hqdefault.jpg",
                        "width": 480,
                        "height": 360
                    },
                    "standard": {
                        "url": "https://i.ytimg.com/vi/-R6vxUVZ6OI/sddefault.jpg",
                        "width": 640,
                        "height": 480
                    },
                    "maxres": {
                        "url": "https://i.ytimg.com/vi/-R6vxUVZ6OI/maxresdefault.jpg",
                        "width": 1280,
                        "height": 720
                    }
                },
                "channelTitle": "_Defalt_",
                "categoryId": "20",
                "liveBroadcastContent": "none",
                "localized": {
                    "title": "DOTA 2 :\u0e40\u0e1b\u0e34\u0e14\u0e01\u0e25\u0e48\u0e2d\u0e07",
                    "description": ""
                },
                "viewCount": "22",
                "likeCount": "0",
                "favoriteCount": "0",
                "commentCount": "5",
                "duration": "PT14M14S",
                "dimension": "2d",
                "definition": "hd",
                "caption": "false",
                "licensedContent": false,
                "contentRating": {},
                "projection": "rectangular",
                "topicCategories": [
                    "https://en.wikipedia.org/wiki/Action-adventure_game",
                    "https://en.wikipedia.org/wiki/Action_game",
                    "https://en.wikipedia.org/wiki/Role-playing_video_game",
                    "https://en.wikipedia.org/wiki/Strategy_video_game",
                    "https://en.wikipedia.org/wiki/Video_game_culture"
                ]
            },
            "7iTZYnKgnwY": {
                "publishedAt": "2017-06-24T15:47:52Z",
                "title": "\u0e01\u0e39\u0e08\u0e30\u0e09\u0e31\u0e14\u0e1b\u0e32\u0e01\u0e21\u0e36\u0e07",
                "channelId": "UCrqxW9_m1LUuhrrq7YPMAtg",
                "description": "GPU: GeForce GTX 950M\nCPU: Intel(R) Core(TM) i7-4720HQ CPU @ 2.60GHz\nMemory: 12 GB RAM (11.89 GB RAM usable)\nCurrent resolution: 1366 x 768, 60Hz\nOperating system: Microsoft Windows 8.1 Enterprise",
                "thumbnails": {
                    "default": {
                        "url": "https://i.ytimg.com/vi/7iTZYnKgnwY/default.jpg",
                        "width": 120,
                        "height": 90
                    },
                    "medium": {
                        "url": "https://i.ytimg.com/vi/7iTZYnKgnwY/mqdefault.jpg",
                        "width": 320,
                        "height": 180
                    },
                    "high": {
                        "url": "https://i.ytimg.com/vi/7iTZYnKgnwY/hqdefault.jpg",
                        "width": 480,
                        "height": 360
                    },
                    "standard": {
                        "url": "https://i.ytimg.com/vi/7iTZYnKgnwY/sddefault.jpg",
                        "width": 640,
                        "height": 480
                    },
                    "maxres": {
                        "url": "https://i.ytimg.com/vi/7iTZYnKgnwY/maxresdefault.jpg",
                        "width": 1280,
                        "height": 720
                    }
                },
                "channelTitle": "_Defalt_",
                "categoryId": "20",
                "liveBroadcastContent": "none",
                "localized": {
                    "title": "\u0e01\u0e39\u0e08\u0e30\u0e09\u0e31\u0e14\u0e1b\u0e32\u0e01\u0e21\u0e36\u0e07",
                    "description": "GPU: GeForce GTX 950M\nCPU: Intel(R) Core(TM) i7-4720HQ CPU @ 2.60GHz\nMemory: 12 GB RAM (11.89 GB RAM usable)\nCurrent resolution: 1366 x 768, 60Hz\nOperating system: Microsoft Windows 8.1 Enterprise"
                },
                "defaultAudioLanguage": "en-US",
                "viewCount": "27",
                "likeCount": "0",
                "favoriteCount": "0",
                "commentCount": "5",
                "duration": "PT20M51S",
                "dimension": "2d",
                "definition": "hd",
                "caption": "false",
                "licensedContent": false,
                "contentRating": {},
                "projection": "rectangular",
                "topicCategories": [
                    "https://en.wikipedia.org/wiki/Action-adventure_game",
                    "https://en.wikipedia.org/wiki/Action_game",
                    "https://en.wikipedia.org/wiki/Role-playing_video_game",
                    "https://en.wikipedia.org/wiki/Video_game_culture"
                ]
            },
            "d7tlIJ5X_9I": {
                "publishedAt": "2017-06-24T15:24:16Z",
                "title": "RB6",
                "channelId": "UCrqxW9_m1LUuhrrq7YPMAtg",
                "description": "GPU: GeForce GTX 950M\nCPU: Intel(R) Core(TM) i7-4720HQ CPU @ 2.60GHz\nMemory: 12 GB RAM (11.89 GB RAM usable)\nCurrent resolution: 1366 x 768, 60Hz\nOperating system: Microsoft Windows 8.1 Enterprise",
                "thumbnails": {
                    "default": {
                        "url": "https://i.ytimg.com/vi/d7tlIJ5X_9I/default.jpg",
                        "width": 120,
                        "height": 90
                    },
                    "medium": {
                        "url": "https://i.ytimg.com/vi/d7tlIJ5X_9I/mqdefault.jpg",
                        "width": 320,
                        "height": 180
                    },
                    "high": {
                        "url": "https://i.ytimg.com/vi/d7tlIJ5X_9I/hqdefault.jpg",
                        "width": 480,
                        "height": 360
                    },
                    "standard": {
                        "url": "https://i.ytimg.com/vi/d7tlIJ5X_9I/sddefault.jpg",
                        "width": 640,
                        "height": 480
                    },
                    "maxres": {
                        "url": "https://i.ytimg.com/vi/d7tlIJ5X_9I/maxresdefault.jpg",
                        "width": 1280,
                        "height": 720
                    }
                },
                "channelTitle": "_Defalt_",
                "categoryId": "20",
                "liveBroadcastContent": "none",
                "localized": {
                    "title": "RB6",
                    "description": "GPU: GeForce GTX 950M\nCPU: Intel(R) Core(TM) i7-4720HQ CPU @ 2.60GHz\nMemory: 12 GB RAM (11.89 GB RAM usable)\nCurrent resolution: 1366 x 768, 60Hz\nOperating system: Microsoft Windows 8.1 Enterprise"
                },
                "defaultAudioLanguage": "en-US",
                "viewCount": "13",
                "likeCount": "0",
                "favoriteCount": "0",
                "commentCount": "0",
                "duration": "PT7M15S",
                "dimension": "2d",
                "definition": "hd",
                "caption": "false",
                "licensedContent": false,
                "contentRating": {},
                "projection": "rectangular",
                "topicCategories": [
                    "https://en.wikipedia.org/wiki/Action-adventure_game",
                    "https://en.wikipedia.org/wiki/Action_game",
                    "https://en.wikipedia.org/wiki/Role-playing_video_game",
                    "https://en.wikipedia.org/wiki/Video_game_culture"
                ]
            },
            "ADiIv9aXxJo": {
                "publishedAt": "2017-06-09T14:44:01Z",
                "title": "OW",
                "channelId": "UCrqxW9_m1LUuhrrq7YPMAtg",
                "description": "GPU: GeForce GTX 950M\nCPU: Intel(R) Core(TM) i7-4720HQ CPU @ 2.60GHz\nMemory: 12 GB RAM (11.89 GB RAM usable)\nCurrent resolution: 1366 x 768, 60Hz\nOperating system: Microsoft Windows 8.1 Enterprise",
                "thumbnails": {
                    "default": {
                        "url": "https://i.ytimg.com/vi/ADiIv9aXxJo/default_live.jpg",
                        "width": 120,
                        "height": 90
                    },
                    "medium": {
                        "url": "https://i.ytimg.com/vi/ADiIv9aXxJo/mqdefault_live.jpg",
                        "width": 320,
                        "height": 180
                    },
                    "high": {
                        "url": "https://i.ytimg.com/vi/ADiIv9aXxJo/hqdefault_live.jpg",
                        "width": 480,
                        "height": 360
                    },
                    "standard": {
                        "url": "https://i.ytimg.com/vi/ADiIv9aXxJo/sddefault_live.jpg",
                        "width": 640,
                        "height": 480
                    },
                    "maxres": {
                        "url": "https://i.ytimg.com/vi/ADiIv9aXxJo/maxresdefault_live.jpg",
                        "width": 1280,
                        "height": 720
                    }
                },
                "channelTitle": "_Defalt_",
                "categoryId": "20",
                "liveBroadcastContent": "upcoming",
                "localized": {
                    "title": "OW",
                    "description": "GPU: GeForce GTX 950M\nCPU: Intel(R) Core(TM) i7-4720HQ CPU @ 2.60GHz\nMemory: 12 GB RAM (11.89 GB RAM usable)\nCurrent resolution: 1366 x 768, 60Hz\nOperating system: Microsoft Windows 8.1 Enterprise"
                },
                "defaultAudioLanguage": "en-US",
                "viewCount": "0",
                "likeCount": "0",
                "favoriteCount": "0",
                "commentCount": "0",
                "duration": "P0D",
                "dimension": "2d",
                "definition": "sd",
                "caption": "false",
                "licensedContent": false,
                "contentRating": {},
                "projection": "rectangular"
            },
            "xwuoLqtt8Ak": {
                "publishedAt": "2017-05-06T07:53:47Z",
                "title": "test 60FPS",
                "channelId": "UCrqxW9_m1LUuhrrq7YPMAtg",
                "description": "",
                "thumbnails": {
                    "default": {
                        "url": "https://i.ytimg.com/vi/xwuoLqtt8Ak/default.jpg",
                        "width": 120,
                        "height": 90
                    },
                    "medium": {
                        "url": "https://i.ytimg.com/vi/xwuoLqtt8Ak/mqdefault.jpg",
                        "width": 320,
                        "height": 180
                    },
                    "high": {
                        "url": "https://i.ytimg.com/vi/xwuoLqtt8Ak/hqdefault.jpg",
                        "width": 480,
                        "height": 360
                    },
                    "standard": {
                        "url": "https://i.ytimg.com/vi/xwuoLqtt8Ak/sddefault.jpg",
                        "width": 640,
                        "height": 480
                    },
                    "maxres": {
                        "url": "https://i.ytimg.com/vi/xwuoLqtt8Ak/maxresdefault.jpg",
                        "width": 1280,
                        "height": 720
                    }
                },
                "channelTitle": "_Defalt_",
                "categoryId": "20",
                "liveBroadcastContent": "none",
                "localized": {
                    "title": "test 60FPS",
                    "description": ""
                },
                "defaultAudioLanguage": "en-US",
                "viewCount": "14",
                "likeCount": "0",
                "favoriteCount": "0",
                "commentCount": "7",
                "duration": "PT17M25S",
                "dimension": "2d",
                "definition": "hd",
                "caption": "false",
                "licensedContent": false,
                "contentRating": {},
                "projection": "rectangular",
                "topicCategories": [
                    "https://en.wikipedia.org/wiki/Action_game",
                    "https://en.wikipedia.org/wiki/Strategy_video_game",
                    "https://en.wikipedia.org/wiki/Video_game_culture"
                ]
            },
            "2dKZXRNMe1w": {
                "publishedAt": "2017-05-01T10:59:05Z",
                "title": "BST",
                "channelId": "UCrqxW9_m1LUuhrrq7YPMAtg",
                "description": "",
                "thumbnails": {
                    "default": {
                        "url": "https://i.ytimg.com/vi/2dKZXRNMe1w/default.jpg",
                        "width": 120,
                        "height": 90
                    },
                    "medium": {
                        "url": "https://i.ytimg.com/vi/2dKZXRNMe1w/mqdefault.jpg",
                        "width": 320,
                        "height": 180
                    },
                    "high": {
                        "url": "https://i.ytimg.com/vi/2dKZXRNMe1w/hqdefault.jpg",
                        "width": 480,
                        "height": 360
                    },
                    "standard": {
                        "url": "https://i.ytimg.com/vi/2dKZXRNMe1w/sddefault.jpg",
                        "width": 640,
                        "height": 480
                    },
                    "maxres": {
                        "url": "https://i.ytimg.com/vi/2dKZXRNMe1w/maxresdefault.jpg",
                        "width": 1280,
                        "height": 720
                    }
                },
                "channelTitle": "_Defalt_",
                "categoryId": "20",
                "liveBroadcastContent": "none",
                "localized": {
                    "title": "BST",
                    "description": ""
                },
                "viewCount": "10",
                "likeCount": "0",
                "favoriteCount": "0",
                "commentCount": "7",
                "duration": "PT16M34S",
                "dimension": "2d",
                "definition": "sd",
                "caption": "false",
                "licensedContent": false,
                "contentRating": {},
                "projection": "rectangular",
                "topicCategories": [
                    "https://en.wikipedia.org/wiki/Action-adventure_game",
                    "https://en.wikipedia.org/wiki/Action_game",
                    "https://en.wikipedia.org/wiki/Role-playing_video_game",
                    "https://en.wikipedia.org/wiki/Strategy_video_game",
                    "https://en.wikipedia.org/wiki/Video_game_culture"
                ]
            },
            "7QFcH0lbe30": {
                "publishedAt": "2017-05-01T10:10:00Z",
                "title": "BST",
                "channelId": "UCrqxW9_m1LUuhrrq7YPMAtg",
                "description": "",
                "thumbnails": {
                    "default": {
                        "url": "https://i.ytimg.com/vi/7QFcH0lbe30/default.jpg",
                        "width": 120,
                        "height": 90
                    },
                    "medium": {
                        "url": "https://i.ytimg.com/vi/7QFcH0lbe30/mqdefault.jpg",
                        "width": 320,
                        "height": 180
                    },
                    "high": {
                        "url": "https://i.ytimg.com/vi/7QFcH0lbe30/hqdefault.jpg",
                        "width": 480,
                        "height": 360
                    },
                    "standard": {
                        "url": "https://i.ytimg.com/vi/7QFcH0lbe30/sddefault.jpg",
                        "width": 640,
                        "height": 480
                    },
                    "maxres": {
                        "url": "https://i.ytimg.com/vi/7QFcH0lbe30/maxresdefault.jpg",
                        "width": 1280,
                        "height": 720
                    }
                },
                "channelTitle": "_Defalt_",
                "categoryId": "20",
                "liveBroadcastContent": "none",
                "localized": {
                    "title": "BST",
                    "description": ""
                },
                "viewCount": "4",
                "likeCount": "0",
                "favoriteCount": "0",
                "commentCount": "0",
                "duration": "PT3M31S",
                "dimension": "2d",
                "definition": "sd",
                "caption": "false",
                "licensedContent": false,
                "contentRating": {},
                "projection": "rectangular",
                "topicCategories": [
                    "https://en.wikipedia.org/wiki/Action_game",
                    "https://en.wikipedia.org/wiki/Strategy_video_game",
                    "https://en.wikipedia.org/wiki/Video_game_culture"
                ]
            },
            "NgBm9s-qPnk": {
                "publishedAt": "2017-03-16T19:55:04Z",
                "title": "Battlefield 1",
                "channelId": "UCrqxW9_m1LUuhrrq7YPMAtg",
                "description": "",
                "thumbnails": {
                    "default": {
                        "url": "https://i.ytimg.com/vi/NgBm9s-qPnk/default.jpg",
                        "width": 120,
                        "height": 90
                    },
                    "medium": {
                        "url": "https://i.ytimg.com/vi/NgBm9s-qPnk/mqdefault.jpg",
                        "width": 320,
                        "height": 180
                    },
                    "high": {
                        "url": "https://i.ytimg.com/vi/NgBm9s-qPnk/hqdefault.jpg",
                        "width": 480,
                        "height": 360
                    }
                },
                "channelTitle": "_Defalt_",
                "categoryId": "20",
                "liveBroadcastContent": "none",
                "localized": {
                    "title": "Battlefield 1",
                    "description": ""
                },
                "defaultAudioLanguage": "en-US",
                "viewCount": "22",
                "likeCount": "0",
                "favoriteCount": "0",
                "commentCount": "0",
                "duration": "PT48M59S",
                "dimension": "2d",
                "definition": "sd",
                "caption": "false",
                "licensedContent": false,
                "contentRating": {},
                "projection": "rectangular",
                "topicCategories": [
                    "https://en.wikipedia.org/wiki/Action-adventure_game",
                    "https://en.wikipedia.org/wiki/Action_game",
                    "https://en.wikipedia.org/wiki/Strategy_video_game",
                    "https://en.wikipedia.org/wiki/Video_game_culture"
                ]
            },
            "7lcMtg52NLw": {
                "publishedAt": "2017-03-08T16:33:25Z",
                "title": "WORLD OF WARSHIP",
                "channelId": "UCrqxW9_m1LUuhrrq7YPMAtg",
                "description": "",
                "thumbnails": {
                    "default": {
                        "url": "https://i.ytimg.com/vi/7lcMtg52NLw/default.jpg",
                        "width": 120,
                        "height": 90
                    },
                    "medium": {
                        "url": "https://i.ytimg.com/vi/7lcMtg52NLw/mqdefault.jpg",
                        "width": 320,
                        "height": 180
                    },
                    "high": {
                        "url": "https://i.ytimg.com/vi/7lcMtg52NLw/hqdefault.jpg",
                        "width": 480,
                        "height": 360
                    },
                    "standard": {
                        "url": "https://i.ytimg.com/vi/7lcMtg52NLw/sddefault.jpg",
                        "width": 640,
                        "height": 480
                    },
                    "maxres": {
                        "url": "https://i.ytimg.com/vi/7lcMtg52NLw/maxresdefault.jpg",
                        "width": 1280,
                        "height": 720
                    }
                },
                "channelTitle": "_Defalt_",
                "tags": [
                    "XSplit"
                ],
                "categoryId": "20",
                "liveBroadcastContent": "none",
                "localized": {
                    "title": "WORLD OF WARSHIP",
                    "description": ""
                },
                "defaultAudioLanguage": "en-US",
                "viewCount": "12",
                "likeCount": "0",
                "favoriteCount": "0",
                "commentCount": "7",
                "duration": "PT17M30S",
                "dimension": "2d",
                "definition": "hd",
                "caption": "false",
                "licensedContent": false,
                "contentRating": {},
                "projection": "rectangular",
                "topicCategories": [
                    "https://en.wikipedia.org/wiki/Action_game",
                    "https://en.wikipedia.org/wiki/Strategy_video_game",
                    "https://en.wikipedia.org/wiki/Video_game_culture"
                ]
            },
            "-t60QH6reEE": {
                "publishedAt": "2016-09-26T16:07:46Z",
                "title": "____",
                "channelId": "UCrqxW9_m1LUuhrrq7YPMAtg",
                "description": "",
                "thumbnails": {
                    "default": {
                        "url": "https://i.ytimg.com/vi/-t60QH6reEE/default.jpg",
                        "width": 120,
                        "height": 90
                    },
                    "medium": {
                        "url": "https://i.ytimg.com/vi/-t60QH6reEE/mqdefault.jpg",
                        "width": 320,
                        "height": 180
                    },
                    "high": {
                        "url": "https://i.ytimg.com/vi/-t60QH6reEE/hqdefault.jpg",
                        "width": 480,
                        "height": 360
                    },
                    "standard": {
                        "url": "https://i.ytimg.com/vi/-t60QH6reEE/sddefault.jpg",
                        "width": 640,
                        "height": 480
                    },
                    "maxres": {
                        "url": "https://i.ytimg.com/vi/-t60QH6reEE/maxresdefault.jpg",
                        "width": 1280,
                        "height": 720
                    }
                },
                "channelTitle": "_Defalt_",
                "tags": [
                    "XSplit"
                ],
                "categoryId": "20",
                "liveBroadcastContent": "none",
                "localized": {
                    "title": "____",
                    "description": ""
                },
                "viewCount": "13",
                "likeCount": "0",
                "favoriteCount": "0",
                "commentCount": "1",
                "duration": "PT3M47S",
                "dimension": "2d",
                "definition": "hd",
                "caption": "false",
                "licensedContent": false,
                "contentRating": {},
                "projection": "rectangular",
                "topicCategories": [
                    "https://en.wikipedia.org/wiki/Action-adventure_game",
                    "https://en.wikipedia.org/wiki/Action_game",
                    "https://en.wikipedia.org/wiki/Video_game_culture"
                ]
            },
            "01E3-4sTlLw": {
                "publishedAt": "2016-09-02T17:55:42Z",
                "title": "Battlefield\u2122 1 Open Beta",
                "channelId": "UCrqxW9_m1LUuhrrq7YPMAtg",
                "description": "",
                "thumbnails": {
                    "default": {
                        "url": "https://i.ytimg.com/vi/01E3-4sTlLw/default.jpg",
                        "width": 120,
                        "height": 90
                    },
                    "medium": {
                        "url": "https://i.ytimg.com/vi/01E3-4sTlLw/mqdefault.jpg",
                        "width": 320,
                        "height": 180
                    },
                    "high": {
                        "url": "https://i.ytimg.com/vi/01E3-4sTlLw/hqdefault.jpg",
                        "width": 480,
                        "height": 360
                    },
                    "standard": {
                        "url": "https://i.ytimg.com/vi/01E3-4sTlLw/sddefault.jpg",
                        "width": 640,
                        "height": 480
                    },
                    "maxres": {
                        "url": "https://i.ytimg.com/vi/01E3-4sTlLw/maxresdefault.jpg",
                        "width": 1280,
                        "height": 720
                    }
                },
                "channelTitle": "_Defalt_",
                "tags": [
                    "XSplit"
                ],
                "categoryId": "20",
                "liveBroadcastContent": "none",
                "localized": {
                    "title": "Battlefield\u2122 1 Open Beta",
                    "description": ""
                },
                "viewCount": "20",
                "likeCount": "0",
                "favoriteCount": "0",
                "commentCount": "1",
                "duration": "PT42M30S",
                "dimension": "2d",
                "definition": "hd",
                "caption": "false",
                "licensedContent": false,
                "contentRating": {},
                "projection": "rectangular",
                "topicCategories": [
                    "https://en.wikipedia.org/wiki/Action-adventure_game",
                    "https://en.wikipedia.org/wiki/Action_game",
                    "https://en.wikipedia.org/wiki/Strategy_video_game",
                    "https://en.wikipedia.org/wiki/Video_game_culture"
                ]
            }
        }
    }
}